<?xml version="1.0" encoding="UTF-8" standalone="no"?>
<svg width="100px" height="100px" viewBox="0 0 100 100" version="1.1" xmlns="http://www.w3.org/2000/svg" xmlns:xlink="http://www.w3.org/1999/xlink">
    <!-- Generator: Sketch 43.2 (39069) - http://www.bohemiancoding.com/sketch -->
    <title>Chat Icon</title>
    <desc>Created with Sketch.</desc>
    <defs>
        <rect id="path-1" x="0" y="0" width="100" height="100" rx="50"></rect>
    </defs>
    <g id="Artboards" stroke="none" stroke-width="1" fill="none" fill-rule="evenodd">
        <g id="Screen-2" transform="translate(-460.000000, -93.000000)">
            <g id="Window" transform="translate(20.000000, 93.000000)">
                <g id="Chat-Helper" transform="translate(440.000000, 0.000000)">
                    <g id="Chat-Icon">
                        <mask id="mask-2" fill="white">
                            <use xlink:href="#path-1"></use>
                        </mask>
                        <use id="Rectangle" fill="#E8E8E8" xlink:href="#path-1"></use>
                        <path d="M69.75625,68.1009615 C76.9875,68.1009615 82.878125,73.9855769 82.878125,81.3004808 L82.878125,102.795673 L18.121875,102.795673 L18.121875,81.3004808 C18.121875,74.0264423 24.0125,68.1009615 31.24375,68.1009615 L69.75625,68.1009615 Z M54.359375,54.6153846 C51.759375,54.6153846 49.60625,56.78125 49.60625,59.3966346 C49.60625,60.5 50.0125,61.4807692 50.621875,62.2980769 L50.5,62.2980769 C43.553125,62.2980769 37.5,58.375 34.4125,52.5721154 L34.4125,45.2572115 C34.4125,43.5408654 33.7625,41.9471154 32.584375,40.7620192 C34.0875,32.1802885 41.5625,25.6418269 50.5,25.6418269 C59.4375,25.6418269 66.9125,32.1802885 68.415625,40.7620192 C67.278125,41.9471154 66.5875,43.5408654 66.5875,45.2572115 L66.5875,52.53125 C66.303125,53.1033654 65.978125,53.6346154 65.6125,54.1658654 C64.06875,54.8197115 62.321875,55.3509615 60.453125,55.5961538 C59.640625,54.9831731 58.625,54.6153846 57.56875,54.6153846 L54.359375,54.6153846 Z M27.871875,57.3942308 C25.6375,57.3942308 23.85,55.5961538 23.85,53.3485577 L23.85,45.2572115 C23.85,43.6634615 24.825,42.2740385 26.165625,41.6201923 C26.734375,28.5841346 37.378125,18.2043269 50.459375,18.2043269 C63.540625,18.2043269 74.225,28.625 74.834375,41.6201923 C76.175,42.2331731 77.109375,43.6634615 77.109375,45.2572115 L77.109375,53.3894231 C77.109375,55.6370192 75.321875,57.4350962 73.0875,57.4350962 L72.884375,57.4350962 C72.1125,57.4350962 71.340625,57.1899038 70.73125,56.78125 C68.009375,58.8245192 64.109375,60.1730769 59.640625,60.5408654 C59.275,61.3173077 58.4625,61.8485577 57.528125,61.8485577 L54.31875,61.8485577 C53.01875,61.8485577 51.921875,60.7451923 51.921875,59.4375 C51.921875,58.1298077 52.978125,57.0264423 54.31875,57.0264423 L57.528125,57.0264423 C58.38125,57.0264423 59.1125,57.4759615 59.559375,58.1298077 C63.41875,57.8028846 66.83125,56.5769231 69.1875,54.9014423 C69.025,54.4110577 68.903125,53.9206731 68.903125,53.3894231 L68.903125,45.2980769 C68.903125,43.7043269 69.796875,42.3149038 71.1375,41.6610577 C70.56875,30.7091346 61.509375,21.9639423 50.5,21.9639423 C39.490625,21.9639423 30.43125,30.6682692 29.8625,41.6201923 C31.203125,42.3149038 32.096875,43.6634615 32.096875,45.2572115 L32.096875,53.3485577 C32.096875,55.5961538 30.309375,57.3942308 28.075,57.3942308 L27.871875,57.3942308 Z" id="Color" fill="#BCBCBC" fill-rule="nonzero" mask="url(#mask-2)"></path>
                    </g>
                </g>
            </g>
        </g>
    </g>
</svg>